…
m9_issuers$sim_index_raw <- unlist(lapply(1:nrow(m9_issuers),
        function(i) {get_name_similarity_index(m9_issuers$company_name_raw[i], m9_issuers$issuer_name_raw[i])}))


one_bag_df <- get_one_bag_df(m9_issuers %>% filter(sim_index_raw >= 0.6) %>%
                                 select(company_name_raw, issuer_name_raw) %>%
                                 rename(company_name = company_name_raw, issuer_name = issuer_name_raw))

one_bag_df %>% filter(word1 != word2 & nchar(word1) > 1 & nchar(word2) > 1 &
    substr(word1, 1, 1) == substr(word2, 1, 1) & nchar(word1) > nchar(word2) &
    ifelse(substr(word1, nchar(word1), nchar(word1)) == 'S', substr(word2, nchar(word2), nchar(word2)) == 'S', TRUE)) %>%
    group_by(word1, word2) %>% summarise(freq = n()) %>% arrange(desc(freq)) %>% print(n=20)
#> `summarise()` regrouping output by 'word1' (override with `.groups` argument)
#> # A tibble: 500 x 3
#> # Groups:   word1 [465]
#>    word1         word2  freq
#>    <chr>         <chr> <int>
#>  1 FUND          FD     1385
#>  2 TRUST         TR     1313
#>  3 HOLDINGS      HLDGS   967
#>  4 FINANCIAL     FINL    826
#>  5 SYSTEMS       SYS     635
#>  6 INTERNATIONAL INTL    634
#>  7 MUNICIPAL     MUN     584
#>  8 SERVICES      SVCS    462
#>  9 INDUSTRIES    INDS    426
#> 10 RESOURCES     RES     416
#> 11 CAPITAL       CAP     373
#> 12 HOLDING       HLDG    234
#> 13 REALTY        RLTY    225
#> 14 MEDICAL       MED     222
#> 15 PROPERTIES    PPTYS   179
#> 16 ENTERTAINMENT ENTMT   178
#> 17 PRODUCTS      PRODS   173
#> 18 INVESTMENT    INVT    163
#> 19 POWER         PWR     163
#> 20 DIVIDEND      DIVID   156
#> # … with 480 more rows
…
m9_issuers$company_name_norm <- stringi::stri_replace_all_regex(m9_issuers$company_name_raw,
                                                                map_df$regex1, map_df$regex2, vectorize_all = FALSE) %>%
    gsub('^\\s', '', .) %>% gsub('\\s$', '', .)

m9_issuers$issuer_name_norm <- stringi::stri_replace_all_regex(m9_issuers$issuer_name_raw,
                                                               map_df$regex1, map_df$regex2, vectorize_all = FALSE) %>%
    gsub('^\\s', '', .) %>% gsub('\\s$', '', .)



m9_issuers %>% select(company_name, company_name_norm, issuer_name, issuer_name_norm) %>% print(n=20)
#> # A tibble: 40,256 x 4
#>    company_name      company_name_norm   issuer_name        issuer_name_norm    
#>    <chr>             <chr>               <chr>              <chr>               
#>  1 K TRON INTERNATI… K TRON INTL INC     FIRST FID BANCORP… FIRST FID BANCORPOR…
#>  2 K TRON INTERNATI… K TRON INTL INC     K TRON INTL INC    K TRON INTL INC     
#>  3 AAR CORP          AAR CO              AAR CORP           AAR CO              
#>  4 TRANZONIC COMPAN… TRANZONIC COS       TRANZONIC COS      TRANZONIC COS       
#>  5 TRANZONIC COMPAN… TRANZONIC COS       TRANZONIC COS      TRANZONIC COS       
#>  6 ABBOTT LABORATOR… ABBOTT LABS         ABBOTT LABS        ABBOTT LABS         
#>  7 ABERDEEN IDAHO M… ABERDEEN IDAHO MNG… ABERDEEN MNG CO    ABERDEEN MNG CO     
#>  8 ABRAMS INDUSTRIE… ABRAMS INDS INC     ABRAMS INDS INC    ABRAMS INDS INC     
#>  9 SERVIDYNE, INC.   SERVIDYNE INC       SERVIDYNE INC      SERVIDYNE INC       
#> 10 WORLDS INC        WORLDS INC          WORLDS INC         WORLDS INC          
#> 11 WORLDS COM INC    WORLDS COM INC      WORLDS INC         WORLDS INC          
#> 12 WORLDS INC        WORLDS INC          WORLDS INC         WORLDS INC          
#> 13 AMETECH INC       AMETECH INC         AMETECH INC        AMETECH INC         
#> 14 ACCEL INTERNATIO… ACCEL INTL CO       ACCEL INTL CORP    ACCEL INTL CO       
#> 15 ACETO CORP        ACETO CO            ACETO CORP         ACETO CO            
#> 16 ACETO CORP        ACETO CO            ALAMO GROUP INC    ALAMO GRP INC       
#> 17 ACETO CORP        ACETO CO            AUTODESK INC       AUTODESK INC        
#> 18 ACMAT CORP        ACMAT CO            ACMAT CORP         ACMAT CO            
#> 19 ACMAT CORP        ACMAT CO            ACMAT CORP         ACMAT CO            
#> 20 ACME CLEVELAND C… ACME CLEVELAND CO   ACME CLEVELAND CO… ACME CLEVELAND CO N…
#> # … with 40,236 more rows
…
m9_issuers %>% group_by(cik, cusip) %>% summarise(sim_index_norm_max = max(sim_index_norm)) %>%
    ungroup() %>% filter(sim_index_norm_max >= 0.4 & sim_index_norm_max <= 0.7) %>% count()
#> `summarise()` regrouping output by 'cik' (override with `.groups` argument)
#> # A tibble: 1 x 1
#>       n
#>   <int>
#> 1  1491


m9_issuers %>% group_by(cik, cusip) %>% summarise(sim_index_norm_max = max(sim_index_norm)) %>%
    ungroup() %>% filter(sim_index_norm_max >= 0.9) %>% inner_join(m9_issuers) %>% filter(sim_index_norm == sim_index_norm_max) %>%
    select(cik, cusip, company_name, issuer_name, issuer_adl, sim_index_norm)
#> `summarise()` regrouping output by 'cik' (override with `.groups` argument)
#> Joining, by = c("cik", "cusip")
#> # A tibble: 26,993 x 6
#>      cik cusip  company_name    issuer_name issuer_adl            sim_index_norm
#>    <int> <chr>  <chr>           <chr>       <chr>                          <dbl>
#>  1    20 48273… K TRON INTERNA… K TRON INT… <NA>                               1
#>  2  1750 00036… AAR CORP        AAR CORP    <NA>                               1
#>  3  1761 89412… TRANZONIC COMP… TRANZONIC … ACQUIRED BY LINSALAT…              1
#>  4  1761 89412… TRANZONIC COMP… TRANZONIC … ACQUIRED BY LINSALAT…              1
#>  5  1800 00282… ABBOTT LABORAT… ABBOTT LABS <NA>                               1
#>  6  1923 00378… ABRAMS INDUSTR… ABRAMS IND… FORMERLY ABRAMS A R …              1
#>  7  1923 81765… SERVIDYNE, INC. SERVIDYNE … <NA>                               1
#>  8  1961 98159… WORLDS INC      WORLDS INC  <NA>                               1
#>  9  1961 98191… WORLDS INC      WORLDS INC  NAME CHANGED TO WORL…              1
#> 10  1969 03109… AMETECH INC     AMETECH INC <NA>                               1
#> # … with 26,983 more rows

m9_issuers %>% group_by(cik, cusip) %>% summarise(sim_index_norm_max = max(sim_index_norm)) %>%
    ungroup() %>% filter(sim_index_norm_max >= 0.8 & sim_index_norm_max < 0.9) %>% inner_join(m9_issuers) %>% filter(sim_index_norm == sim_index_norm_max) %>%
    select(cik, cusip, company_name, issuer_name, issuer_adl, sim_index_norm)
#> `summarise()` regrouping output by 'cik' (override with `.groups` argument)
#> Joining, by = c("cik", "cusip")
#> # A tibble: 2,789 x 6
#>      cik cusip  company_name      issuer_name   issuer_adl        sim_index_norm
#>    <int> <chr>  <chr>             <chr>         <chr>                      <dbl>
#>  1  2066 00462… ACME CLEVELAND C… ACME CLEVELA… FORMERLY ACME CL…          0.833
#>  2  2457 00750… ADVANCE ROSS CORP ADVANCE ROSS… <NA>                       0.812
#>  3  2969 00915… AIR PRODUCTS & C… AIR PRODS & … <NA>                       0.889
#>  4  3000 00926… AIRBORNE FREIGHT… AIRBORNE FGH… ACQUIRED BY AIRB…          0.875
#>  5  3000 00926… AIRBORNE INC /DE/ AIRBORNE INC  <NA>                       0.846
#>  6  3202 01165… ALASKA AIRLINES … ALASKA AIR G… <NA>                       0.8  
#>  7  3303 01234… ALBANY INTERNATI… ALBANY INTL … <NA>                       0.867
#>  8  3327 01307… ALBERTO CULVER CO ALBERTO-CULV… ACQUIRED BY UNIL…          0.833
#>  9  3333 01310… ALBERTSONS INC /… ALBERTSONS I… <NA>                       0.867
#> 10  3642 01675… ALLCITY INSURANC… ALLCITY INS … <NA>                       0.857
#> # … with 2,779 more rows

m9_issuers %>% group_by(cik, cusip) %>% summarise(sim_index_norm_max = max(sim_index_norm)) %>%
    ungroup() %>% filter(sim_index_norm_max < 0.3) %>% inner_join(m9_issuers) %>% filter(sim_index_norm == sim_index_norm_max) %>%
    select(cik, cusip, company_name, issuer_name, issuer_adl, sim_index_norm)
#> `summarise()` regrouping output by 'cik' (override with `.groups` argument)
#> Joining, by = c("cik", "cusip")
#> # A tibble: 3,073 x 6
#>      cik cusip  company_name    issuer_name      issuer_adl       sim_index_norm
#>    <int> <chr>  <chr>           <chr>            <chr>                     <dbl>
#>  1    20 32019… K TRON INTERNA… FIRST FID BANCO… ACQUIRED BY FIR…          0.2  
#>  2  2034 01131… ACETO CORP      ALAMO GROUP INC  <NA>                      0.182
#>  3  2034 05276… ACETO CORP      AUTODESK INC     <NA>                      0.182
#>  4  2308 18272… ADDMASTER CORP  CLARY CORP       <NA>                      0.273
#>  5  2648 30158… AETNA LIFE & C… EXECUTIVE RISK … ACQUIRED BY CHU…          0.188
#>  6  2648 44490… AETNA LIFE & C… HUMAN GENOME SC… <NA>                      0.227
#>  7  2648 56509… AETNA LIFE & C… MAPCO INC        MERGED INTO WIL…          0.143
#>  8  2648 67741… AETNA LIFE & C… OHIO PWR CO      <NA>                      0.214
#>  9  2648 67741… AETNA LIFE & C… OHIO PWR CO      <NA>                      0.214
#> 10  2648 81764… AETNA LIFE & C… SERVICO INC FLA  REORGANIZED AS …          0.143
#> # … with 3,063 more rows

m9_issuers %>% group_by(cik, cusip) %>% summarise(sim_index_norm_max = max(sim_index_norm)) %>%
    ungroup() %>% filter(sim_index_norm_max >= 0.4 & sim_index_norm_max <= 0.7) %>% inner_join(m9_issuers) %>% filter(sim_index_norm == sim_index_norm_max) %>%
    select(cik, cusip, company_name, issuer_name, issuer_adl, sim_index_norm) %>% print(n=20)
#> `summarise()` regrouping output by 'cik' (override with `.groups` argument)
#> Joining, by = c("cik", "cusip")
#> # A tibble: 1,509 x 6
#>      cik cusip  company_name     issuer_name    issuer_adl        sim_index_norm
#>    <int> <chr>  <chr>            <chr>          <chr>                      <dbl>
#>  1  2648 00811… AETNA SERVICES … AETNA INC      MERGED INTO ING …          0.571
#>  2  2648 00817… AETNA SERVICES … AETNA INC NEW  FORMERLY AETNA U…          0.5  
#>  3  2668 00103… AFA PROTECTIVE … AFA PROT SYS … <NA>                       0.684
#>  4  3449 01448… ALEXANDER & ALE… ALEXANDER & B… REORGANIZED AS A…          0.56 
#>  5  3662 86707… SUNBEAM CORP/FL/ SUNBEAM CORP … FORMERLY SUNBEAM…          0.667
#>  6  5099 92095… VAN KAMPEN CONV… VAN KAMPEN AM… MERGED INTO VAN …          0.607
#>  7  5103 02637… AMERICAN GENERA… AMERICAN GEN … <NA>                       0.571
#>  8  5611 02886… FINA INC         AMERICAN PETR… NAME CHANGED TO …          0.412
#>  9  5907 00206… AT&T CORP        AT&T INC       <NA>                       0.5  
#> 10  6201 00176… AMR CORP         AMR CORP DEL   NAME CHANGED TO …          0.625
#> 11  6201 00176… AMR CORP         AMR CORP DEL   NAME CHANGED TO …          0.625
#> 12  6260 03237… ANACOMP INC      ANACOMP INC I… <NA>                       0.625
#> 13  8063 04990… ASTRONICS CORP   ATRION CORP    <NA>                       0.545
#> 14 11821 08655… BEST PRODUCTS C… BEST PRODS IN… <NA>                       0.667
#> 15 12659 09367… H&R BLOCK INC    BLOCK H & R I… <NA>                       0.6  
#> 16 14707 11523… BROWN SHOE CO I… BROWN & BROWN… <NA>                       0.643
#> 17 14707 11573… BROWN SHOE CO I… BROWN SHOE IN… <NA>                       0.667
#> 18 14707 11573… BROWN SHOE CO I… BROWN SHOE IN… <NA>                       0.667
#> 19 14957 11742… BRUSH WELLMAN I… BRUSH ENGINEE… NAME CHANGED TO …          0.478
#> 20 16387 14052… CAPITAL TRUST    CAPITAL TR IN… NAME CHANGED TO …          0.5  
#> # … with 1,489 more rows
…
